{
  "Gallery": {
    "Basic": [
      {
      "name": "Send To Tv",
      "description": "opens a url with Deeplinks App",
      "icon": "symbol-square_and_arrow_up_fill",
      "color": "#06C1D3",
      "link": "https://www.icloud.com/shortcuts/b0661282cf1a4852bc101835d3956e46"
      }
    ],
    "Tools": [
    {
      "name": "Get Video Src",
      "description": "Get the URL of a video playing in a webpage",
      "icon": "symbol-square_2_stack_3d",
      "color": "#FF7A60",
      "link": "https://www.icloud.com/shortcuts/1dbff754f5834402b88ae860795dc781"
      }
    ]
  }
  
}